D:\epam\com\FirstTask\src\main\java\com\epam\Fibonacci.java
D:\epam\com\FirstTask\src\main\java\com\epam\Menu.java
D:\epam\com\FirstTask\src\main\java\com\epam\package-info.java
D:\epam\com\FirstTask\src\main\java\com\epam\Interval.java
D:\epam\com\FirstTask\src\main\java\com\epam\Converter.java
D:\epam\com\FirstTask\src\main\java\com\epam\Main.java
